

//this is for informing parents
   

function setup() {
  noCanvas();
 


  
//Database Work:

            // Initialize Firebase
            var config = {
              apiKey: "AIzaSyDkzsEwhlbx7Y_vvW1KnTae05u-2PnXKI0",
              authDomain: "hcidiary.firebaseapp.com",
              databaseURL: "https://hcidiary.firebaseio.com",
              projectId: "hcidiary",
              storageBucket: "",
              messagingSenderId: "853822567870"
            };

            firebase.initializeApp(config);
            var database = firebase.database();

            //retrieve from firebase
            var ref = database.ref('scores');
            ref.on('value', getData, errData);
			
			var array = [];
			var options = new Object();
			options.chart = new Object();
			options.chart.renderTo = 'container';
			options.chart.type = 'line';
			options.plotOptions = new Object();
			options.plotOptions.series =  new Object();
			options.plotOptions.series.pointStart = Date.UTC(2017, 10, 20);
			options.plotOptions.series.pointInterval = 24 * 3600 * 1000 * 7;
			options.xAxis = new Object();
			options.xAxis.type = "datetime";
			options.yAxis = new Object();
			options.yAxis.title =  new Object();
			options.yAxis.title.text = "Student Emotions";
			options.series = new Array();
			options.title = new Object();
			options.title.text = "Student Mood 2017";


			
            function getData(data){
              //console.log(data.val());
              /*var scorelistings = selectAll('.scorelisting');
              for (var i = 0; i < scorelistings.length; i++){
              	scorelistings[i].remove();
              }
			*/

              var scores = data.val();
              var keys = Object.keys(scores);
              //console.log(keys);

            //var jsonDict = [];              
     		  var objects = [];


              for (var i = 0; i < keys.length; i++){
                var k = keys[i];
				
               	var initials = scores[k].initials;
                var title = scores[k].title;
                var content = scores[k].content;
                var date = scores[k].date;
                var score = scores[k].score;
              
	    /* $("#table_body").append("<tr><td>" + initials + "</td><td>" + title + "</td><td>" + content + "</td><td>" + date + "</td><td>" + score + "</td><td><select><optgroup><option>Select Recipient</option><option>Student</option><option>Parent</option></optgroup></select></td></tr>" )
            */   
	      /*table.class('scorelisting');  */   
	     $("#table_body").append("<tr><td>" + initials + "</td><td>" + title + "</td><td>" + content + "</td><td>" + date + "</td><td>" + score + "</td><td><a onclick='myFunction()'>Email</button></td></tr>" )
            

                /*var tr = createElement('tr', initials + ': ' + score + ': ' + content);
                tr.parent('tr');*/
              /*  function myFunction () {
    alert("I am an alert box!");
          }*/

				var part1 = "{name: '" + initials + "', data: [";
				if ((i != 0)&& initials == scores[k].initials)
				{
					array.push(score);
				}

        var jsonData = {};
        var jsonArray = [];

        if(isNaN(array[1]))
          jsonArray.push(parseInt(0));
        else 
          jsonArray.push(parseInt(array[1]));

        if(isNaN(array[2]))
          jsonArray.push(parseInt(0));
        else 
          jsonArray.push(parseInt(array[2]));

        if(isNaN(array[3]))
          jsonArray.push(parseInt(0));
        else 
          jsonArray.push(parseInt(array[3]));


        jsonData["name"] = initials;
        jsonData["data"] = jsonArray;
        //jsonDict.push(jsonData);
options.series.push(
    jsonData
)
			  var part3 = "]}";
                //console.log(initials, score);
                //var li = createElement('li', initials + ': ' + score + ': ' + content);
                //li.parent('scorelist');
        
       
                objects.push(jsonData);
                // if (i != keys.length-1)
                //   objects = objects + ",";
              }

			  console.log(objects);
			  // construct json here
			  //var test = array;
			  // this is the test1 i wanna put inside
			  //var test1 = part1 + parseInt(array[1]) + ", " + parseInt(array[2]) + ", " + parseInt(array[3]) + part3;

			  Highcharts.chart(options);
// 			  	Highcharts.chart('container', jsonObj={
//     title: {
//         text: 'Student Mood, 2010-2016'
//     },

//     subtitle: {
//         text: 'Student Mood by week'
//     },
	
// 	xAxis: {
//         type: 'datetime'
//     },

//     yAxis: {
//         title: {
//             text: 'Number of Employees'
//         }
//     },
//     legend: {
//         layout: 'vertical',
//         align: 'right',
//         verticalAlign: 'middle'
//     },

//     plotOptions: {
//         series: {
//             pointStart: Date.UTC(2017, 0, 2),
//             pointInterval: 24 * 3600 * 1000 * 7// one day
//         }
//     },

//     series: [

// 	// type here
// 	// at here
//   //jsonDict
// 	//JSON.stringify(test1)
// 	{name: 'Alvin', data: [3, -3, -3]}
// //objects
// 	// {
//  //        name: 'Tommy',
//  //        data: [1.0, 0.8, 0.64, 0.86, 0.7, 0.9, 1, 0.83]
//  //    }, {
//  //        name: 'Alvin',
//  //        data: [0.916, 0.64, 0.742, 0.851, 0.490, 0.82, 0.8121, 0.434]
//  //    }, {
//  //        name: 'Kirby',
//  //        data: [0.744, 0.722, 0.6005, 0.771, 0.85, 0.377, 0.147, 0.387]
//  //    }, {
//  //        name: 'SK',
//  //        data: [null, null, 0.88, 0.69, 0.112, 0.452, 0.500, 0.227]
//  //    }, {
//  //        name: 'Wesley',
//  //        data: [0.908, 0.48, 0.05, 0.48, 0.89, 0.6, 0.274, 0.111]
//  //    }
//     ],

//     responsive: {
//         rules: [{
//             condition: {
//                 maxWidth: 500
//             },
//             chartOptions: {
//                 legend: {
//                     layout: 'horizontal',
//                     align: 'center',
//                     verticalAlign: 'bottom'
//                 }
//             }
//         }]
//     }

// });

            }

          function errData(data){
            console.log('Error!');
            console.log(err);
          }
  
          /* var emailparents =  select('#email');
   			 if ( emailparents != null) {
          emailparents.mousePressed(mail);
        }
        function mail(){

        	alert("Hihi");
        }*/

//Sentiment Analysis and Insert into Database :

          // Get the text to analyze
          var txt = select('#text');
          var txtTitle = select('#title');
          var name = select('#name');
          // Get the analyze button
          var analyzeit = select('#analyze');
          if ( analyzeit != null) {
          analyzeit.mousePressed(analyze);
        }

          // Run the analysis
          function analyze() {
            var params = {
              text: txt.value()
            }
            // Have to use a POST here!
            httpPost('/analyze', params, success);
            
            if (text1.value() != ""){

          var data = {
          initials: "Alvin",
          title: txtTitle.value(),
          content: txt.value(),
          score: text2.value(),
          comparative: text1.value(),
          negative: text3.value(),
          positive: text4.value(),
          date: Date()
          }
          console.log(data);
          var ref = database.ref('scores');
          ref.push(data);
        }
        }

      // A bunch of elements to show results
        var scoreresult = select('#scoreresult');
        var text2 = select('#text2');
        var comparative = select('#comparative');
        var text1 = select('#text1');
        var negative = select('#negative');
        var text3 = select('#text3');
        var positive = select('#positive');
        var text4 = select('#text4');


          // Look at the results
          function success(result) {
            // It comes in as text so have to turn it into an object
            result = JSON.parse(result);
            scoreresult.html('score: ' + result.score);
            text2.value(result.score);
            comparative.html('comparative: ' + result.comparative);
            text1.value(result.comparative);
            negative.html('negative words: ' + result.negative.join(', '));
            text3.value(result.negative.join(', '));
            positive.html('positive words: ' + result.positive.join(', '));
            text4.value(result.positive.join(', '));
            console.log(result);
          }


}
